Tidyverse Part 1 Working with Biological Data
…
popinfo

# A tibble: 51 x 9
   pop   mahalDist southernEdgeDist Zone  Location                 State_Province NumInds Longitude Latitude
   <chr>     <dbl>            <dbl> <chr> <chr>                    <chr>            <dbl>     <dbl>    <dbl>
 1 CBI       44.4          1510509. Core  Cape_Breton_Island       NS                   8     -61.2     46.1
 2 CHL       12.6           619981. Edge  Chaffey's_Lock           ON                   7     -76.2     44.6
 3 CLK       12.9          1548461. Core  Cold_Lake                AB                  14    -110.      54.2
 4 CPL        8.35          695595. Core  Chapleau                 ON                  14     -83.3     47.5
 5 CYH       15.6          1121559. Edge  Cypress_Hills_Prov._Park SK                  11    -110.      49.6
 6 DCK       11.1          1027383. Core  Duck_Mountain            SK                  13    -102.      51.6
 7 DPR        8.48          725548. Core  Deep_River               ON                  14     -77.5     46.1
 8 FIS       31.6          1801245. Core  Fischells_River          NL                   9     -58.4     48.2
 9 FNO        8.70         2413069. Core  Fort_Nelson              BC                  15    -122.      58.5
10 GAM       16.8          1058415. Core  Matagami                 QC                  15     -77.4     49.5
# … with 41 more rows
…
